^D:\TOM\DOCUMENTS\SOURCE TREE\GRAPHICS\GRAPHICSASSIGN1.RC
D:\TOM\DOCUMENTS\SOURCE TREE\GRAPHICS\RELEASE\GRAPHICSASSIGN1.RES
^F:\COMPUTER GRAPHICS\ASSIGNMENT\GRAPHICS\GRAPHICSASSIGN1.RC
F:\COMPUTER GRAPHICS\ASSIGNMENT\GRAPHICS\RELEASE\GRAPHICSASSIGN1.RES
