^D:\ONEDRIVE\UNI\COMPUTER GRAPHICS\ASSIGNMENT\CO2409 - ASSIGNMENT PROJECT\DEBUG\BASEMATH.OBJ|D:\ONEDRIVE\UNI\COMPUTER GRAPHICS\ASSIGNMENT\CO2409 - ASSIGNMENT PROJECT\DEBUG\CAMERA.OBJ|D:\ONEDRIVE\UNI\COMPUTER GRAPHICS\ASSIGNMENT\CO2409 - ASSIGNMENT PROJECT\DEBUG\CFATALEXCEPTION.OBJ|D:\ONEDRIVE\UNI\COMPUTER GRAPHICS\ASSIGNMENT\CO2409 - ASSIGNMENT PROJECT\DEBUG\CIMPORTXFILE.OBJ|D:\ONEDRIVE\UNI\COMPUTER GRAPHICS\ASSIGNMENT\CO2409 - ASSIGNMENT PROJECT\DEBUG\CMATRIX2X2.OBJ|D:\ONEDRIVE\UNI\COMPUTER GRAPHICS\ASSIGNMENT\CO2409 - ASSIGNMENT PROJECT\DEBUG\CMATRIX3X3.OBJ|D:\ONEDRIVE\UNI\COMPUTER GRAPHICS\ASSIGNMENT\CO2409 - ASSIGNMENT PROJECT\DEBUG\CMATRIX4X4.OBJ|D:\ONEDRIVE\UNI\COMPUTER GRAPHICS\ASSIGNMENT\CO2409 - ASSIGNMENT PROJECT\DEBUG\CQUATERNION.OBJ|D:\ONEDRIVE\UNI\COMPUTER GRAPHICS\ASSIGNMENT\CO2409 - ASSIGNMENT PROJECT\DEBUG\CQUATTRANSFORM.OBJ|D:\ONEDRIVE\UNI\COMPUTER GRAPHICS\ASSIGNMENT\CO2409 - ASSIGNMENT PROJECT\DEBUG\CTIMER.OBJ|D:\ONEDRIVE\UNI\COMPUTER GRAPHICS\ASSIGNMENT\CO2409 - ASSIGNMENT PROJECT\DEBUG\CVECTOR2.OBJ|D:\ONEDRIVE\UNI\COMPUTER GRAPHICS\ASSIGNMENT\CO2409 - ASSIGNMENT PROJECT\DEBUG\CVECTOR3.OBJ|D:\ONEDRIVE\UNI\COMPUTER GRAPHICS\ASSIGNMENT\CO2409 - ASSIGNMENT PROJECT\DEBUG\CVECTOR4.OBJ|D:\ONEDRIVE\UNI\COMPUTER GRAPHICS\ASSIGNMENT\CO2409 - ASSIGNMENT PROJECT\DEBUG\GRAPHICSASSIGN1.OBJ|D:\ONEDRIVE\UNI\COMPUTER GRAPHICS\ASSIGNMENT\CO2409 - ASSIGNMENT PROJECT\DEBUG\GRAPHICSASSIGN1.RES|D:\ONEDRIVE\UNI\COMPUTER GRAPHICS\ASSIGNMENT\CO2409 - ASSIGNMENT PROJECT\DEBUG\INPUT.OBJ|D:\ONEDRIVE\UNI\COMPUTER GRAPHICS\ASSIGNMENT\CO2409 - ASSIGNMENT PROJECT\DEBUG\MAIN.OBJ|D:\ONEDRIVE\UNI\COMPUTER GRAPHICS\ASSIGNMENT\CO2409 - ASSIGNMENT PROJECT\DEBUG\MATHIO.OBJ|D:\ONEDRIVE\UNI\COMPUTER GRAPHICS\ASSIGNMENT\CO2409 - ASSIGNMENT PROJECT\DEBUG\MODEL.OBJ|D:\ONEDRIVE\UNI\COMPUTER GRAPHICS\ASSIGNMENT\CO2409 - ASSIGNMENT PROJECT\DEBUG\MSDEFINES.OBJ|D:\ONEDRIVE\UNI\COMPUTER GRAPHICS\ASSIGNMENT\CO2409 - ASSIGNMENT PROJECT\DEBUG\UTILITY.OBJ
/OUT:"DEBUG\GRAPHICSASSIGN1.EXE" /INCREMENTAL /NOLOGO winmm.lib d3d10.lib d3dx10d.lib d3dx9d.lib dxguid.lib kernel32.lib user32.lib gdi32.lib winspool.lib comdlg32.lib advapi32.lib shell32.lib ole32.lib oleaut32.lib uuid.lib odbc32.lib odbccp32.lib /MANIFEST:NO /DEBUG /PDB:"DEBUG\GRAPHICSASSIGN1.PDB" /SUBSYSTEM:WINDOWS /LARGEADDRESSAWARE /TLBID:1 /DYNAMICBASE:NO /IMPLIB:"DEBUG\GRAPHICSASSIGN1.LIB" /MACHINE:X86 /SAFESEH:NO DEBUG\GRAPHICSASSIGN1.RESDEBUG\CAMERA.OBJDEBUG\CTIMER.OBJDEBUG\CIMPORTXFILE.OBJDEBUG\CFATALEXCEPTION.OBJDEBUG\MSDEFINES.OBJDEBUG\UTILITY.OBJDEBUG\BASEMATH.OBJDEBUG\CMATRIX2X2.OBJDEBUG\CMATRIX3X3.OBJDEBUG\CMATRIX4X4.OBJDEBUG\CQUATERNION.OBJDEBUG\CQUATTRANSFORM.OBJDEBUG\CVECTOR2.OBJDEBUG\CVECTOR3.OBJDEBUG\CVECTOR4.OBJDEBUG\MATHIO.OBJDEBUG\MAIN.OBJDEBUG\MODEL.OBJDEBUG\GRAPHICSASSIGN1.OBJDEBUG\INPUT.OBJ
^D:\TOM\DOCUMENTS\SOURCE TREE\GRAPHICS\DEBUG\BASEMATH.OBJ|D:\TOM\DOCUMENTS\SOURCE TREE\GRAPHICS\DEBUG\CAMERA.OBJ|D:\TOM\DOCUMENTS\SOURCE TREE\GRAPHICS\DEBUG\CFATALEXCEPTION.OBJ|D:\TOM\DOCUMENTS\SOURCE TREE\GRAPHICS\DEBUG\CIMPORTXFILE.OBJ|D:\TOM\DOCUMENTS\SOURCE TREE\GRAPHICS\DEBUG\CMATRIX2X2.OBJ|D:\TOM\DOCUMENTS\SOURCE TREE\GRAPHICS\DEBUG\CMATRIX3X3.OBJ|D:\TOM\DOCUMENTS\SOURCE TREE\GRAPHICS\DEBUG\CMATRIX4X4.OBJ|D:\TOM\DOCUMENTS\SOURCE TREE\GRAPHICS\DEBUG\CQUATERNION.OBJ|D:\TOM\DOCUMENTS\SOURCE TREE\GRAPHICS\DEBUG\CQUATTRANSFORM.OBJ|D:\TOM\DOCUMENTS\SOURCE TREE\GRAPHICS\DEBUG\CTIMER.OBJ|D:\TOM\DOCUMENTS\SOURCE TREE\GRAPHICS\DEBUG\CVECTOR2.OBJ|D:\TOM\DOCUMENTS\SOURCE TREE\GRAPHICS\DEBUG\CVECTOR3.OBJ|D:\TOM\DOCUMENTS\SOURCE TREE\GRAPHICS\DEBUG\CVECTOR4.OBJ|D:\TOM\DOCUMENTS\SOURCE TREE\GRAPHICS\DEBUG\GRAPHICSASSIGN1.OBJ|D:\TOM\DOCUMENTS\SOURCE TREE\GRAPHICS\DEBUG\GRAPHICSASSIGN1.RES|D:\TOM\DOCUMENTS\SOURCE TREE\GRAPHICS\DEBUG\INPUT.OBJ|D:\TOM\DOCUMENTS\SOURCE TREE\GRAPHICS\DEBUG\LIGHT.OBJ|D:\TOM\DOCUMENTS\SOURCE TREE\GRAPHICS\DEBUG\MAIN.OBJ|D:\TOM\DOCUMENTS\SOURCE TREE\GRAPHICS\DEBUG\MATHIO.OBJ|D:\TOM\DOCUMENTS\SOURCE TREE\GRAPHICS\DEBUG\MODEL.OBJ|D:\TOM\DOCUMENTS\SOURCE TREE\GRAPHICS\DEBUG\MSDEFINES.OBJ|D:\TOM\DOCUMENTS\SOURCE TREE\GRAPHICS\DEBUG\UTILITY.OBJ
/OUT:"DEBUG\GRAPHICSASSIGN1.EXE" /INCREMENTAL /NOLOGO winmm.lib d3d10.lib d3dx10d.lib d3dx9d.lib dxguid.lib kernel32.lib user32.lib gdi32.lib winspool.lib comdlg32.lib advapi32.lib shell32.lib ole32.lib oleaut32.lib uuid.lib odbc32.lib odbccp32.lib /MANIFEST:NO /DEBUG /PDB:"DEBUG\GRAPHICSASSIGN1.PDB" /SUBSYSTEM:WINDOWS /LARGEADDRESSAWARE /TLBID:1 /DYNAMICBASE:NO /IMPLIB:"DEBUG\GRAPHICSASSIGN1.LIB" /MACHINE:X86 /SAFESEH:NO DEBUG\GRAPHICSASSIGN1.RESDEBUG\CAMERA.OBJDEBUG\CTIMER.OBJDEBUG\CIMPORTXFILE.OBJDEBUG\CFATALEXCEPTION.OBJDEBUG\MSDEFINES.OBJDEBUG\UTILITY.OBJDEBUG\BASEMATH.OBJDEBUG\CMATRIX2X2.OBJDEBUG\CMATRIX3X3.OBJDEBUG\CMATRIX4X4.OBJDEBUG\CQUATERNION.OBJDEBUG\CQUATTRANSFORM.OBJDEBUG\CVECTOR2.OBJDEBUG\CVECTOR3.OBJDEBUG\CVECTOR4.OBJDEBUG\MATHIO.OBJDEBUG\LIGHT.OBJDEBUG\MAIN.OBJDEBUG\MODEL.OBJDEBUG\GRAPHICSASSIGN1.OBJDEBUG\INPUT.OBJ
